N0 G28*19
N1 G0 X5 Y5*41
N2 G1 Z50.00*123
N3 G1 X10.00 Y10.00 Z50.00 F15000*41
N4 G1 X10.00 Y10.00 Z10.00 F15000*42
N5 G4 S1*106
N6 G1 Z50.00*127
N7 G1 X80.00 Y10.00 Z50.00 F15000*36
N8 G1 X80.00 Y10.00 Z10.00 F15000*47
N9 G4 S1*102
N10 G1 Z50.00*72
N11 G1 X10.00 Y10.00 Z50.00 F15000*26
N12 G1 X10.00 Y10.00 Z10.00 F15000*29
N13 G4 S1*93
N14 G1 Z50.00*76
N15 G1 X80.00 Y20.00 Z50.00 F15000*20
N16 G1 X80.00 Y20.00 Z10.00 F15000*19
N17 G4 S1*89
N18 G1 Z50.00*64
N19 G1 X10.00 Y10.00 Z50.00 F15000*18
N20 G1 X10.00 Y10.00 Z10.00 F15000*28
N21 G4 S1*92
N22 G1 Z50.00*73
N23 G1 X40.00 Y10.00 Z50.00 F15000*30
N24 G1 X40.00 Y10.00 Z10.00 F15000*29
N25 G4 S1*88
N26 G1 Z50.00*77
N27 G1 X10.00 Y10.00 Z50.00 F15000*31
N28 G1 X10.00 Y10.00 Z10.00 F15000*20
N29 G4 S1*84
N30 G1 Z50.00*74
N31 G1 X50.00 Y10.00 Z50.00 F15000*28
N32 G1 X50.00 Y10.00 Z10.00 F15000*27
N33 G4 S1*95
N34 G1 Z50.00*78
N35 G1 X10.00 Y10.00 Z50.00 F15000*28
N36 G1 X10.00 Y10.00 Z10.00 F15000*27
N37 G4 S1*91
N38 G1 Z50.00*66
N39 G1 X60.00 Y10.00 Z50.00 F15000*23
N40 G1 X60.00 Y10.00 Z10.00 F15000*29
N41 G4 S1*90
N42 G1 Z50.00*79
N43 G1 X10.00 Y10.00 Z50.00 F15000*29
N44 G1 X10.00 Y10.00 Z10.00 F15000*30
N45 G4 S1*94
N46 G1 Z50.00*75
N47 G1 X70.00 Y10.00 Z50.00 F15000*31
N48 G1 X70.00 Y10.00 Z10.00 F15000*20
N49 G4 S1*82
N50 G1 Z50.00*76
N51 G1 X10.00 Y10.00 Z50.00 F15000*30
N52 G1 X10.00 Y10.00 Z10.00 F15000*25
N53 G4 S1*89
N54 G1 Z50.00*72
N55 G1 X40.00 Y20.00 Z50.00 F15000*28
N56 G1 X40.00 Y20.00 Z10.00 F15000*27
N57 G4 S1*93
N58 G1 Z50.00*68
N59 G1 X10.00 Y10.00 Z50.00 F15000*22
N60 G1 X10.00 Y10.00 Z10.00 F15000*24
N61 G4 S1*88
N62 G1 Z50.00*77
N63 G1 X50.00 Y20.00 Z50.00 F15000*24
N64 G1 X50.00 Y20.00 Z10.00 F15000*27
N65 G4 S1*92
N66 G1 Z50.00*73
N67 G1 X10.00 Y10.00 Z50.00 F15000*27
N68 G1 X10.00 Y10.00 Z10.00 F15000*16
N69 G4 S1*80
N70 G1 Z50.00*78
N71 G1 X60.00 Y20.00 Z50.00 F15000*24
N72 G1 X60.00 Y20.00 Z10.00 F15000*31
N73 G4 S1*91
N74 G1 Z50.00*74
N75 G1 X10.00 Y10.00 Z50.00 F15000*24
N76 G1 X10.00 Y10.00 Z10.00 F15000*31
N77 G4 S1*95
N78 G1 Z50.00*70
N79 G1 X70.00 Y20.00 Z50.00 F15000*17
N80 G1 X70.00 Y20.00 Z10.00 F15000*19
N81 G4 S1*86
N82 G1 Z50.00*67
N83 G1 X10.00 Y10.00 Z50.00 F15000*17
N84 G1 X10.00 Y10.00 Z10.00 F15000*18
N85 G4 S1*82
N86 G1 Z50.00*71
N87 G1 X40.00 Y30.00 Z50.00 F15000*18
N88 G1 X40.00 Y30.00 Z10.00 F15000*25
N89 G4 S1*94
N90 G1 Z50.00*64
N91 G1 X10.00 Y10.00 Z50.00 F15000*18
N92 G1 X10.00 Y10.00 Z10.00 F15000*21
N93 G4 S1*85
N94 G1 Z50.00*68
N95 G1 X50.00 Y30.00 Z50.00 F15000*16
N96 G1 X50.00 Y30.00 Z10.00 F15000*23
N97 G4 S1*81
N98 G1 Z50.00*72
N99 G1 X10.00 Y10.00 Z50.00 F15000*26
N100 G1 X10.00 Y10.00 Z10.00 F15000*47
N101 G4 S1*111
N102 G1 Z50.00*122
N103 G1 X60.00 Y30.00 Z50.00 F15000*45
N104 G1 X60.00 Y30.00 Z10.00 F15000*46
N105 G4 S1*107
N106 G1 Z50.00*126
N107 G1 X10.00 Y10.00 Z50.00 F15000*44
N108 G1 X10.00 Y10.00 Z10.00 F15000*39
N109 G4 S1*103
N110 G1 Z50.00*121
N111 G1 X70.00 Y30.00 Z50.00 F15000*47
N112 G1 X70.00 Y30.00 Z10.00 F15000*40
N113 G4 S1*108
N114 G1 Z50.00*125
N115 G1 X10.00 Y10.00 Z50.00 F15000*47
N116 G1 X10.00 Y10.00 Z10.00 F15000*40
N117 G4 S1*104
N118 G1 Z50.00*113
N119 G1 X80.00 Y30.00 Z50.00 F15000*40
N120 G1 X80.00 Y30.00 Z10.00 F15000*38
N121 G4 S1*109
N122 G1 Z50.00*120
N123 G1 X10.00 Y10.00 Z50.00 F15000*42
N124 G1 X10.00 Y10.00 Z10.00 F15000*41
N125 G4 S1*105
N126 G1 Z50.00*124
N127 G1 X40.00 Y40.00 Z50.00 F15000*46
N128 G1 X40.00 Y40.00 Z10.00 F15000*37
N129 G4 S1*101
N130 G1 Z50.00*123
N131 G1 X10.00 Y10.00 Z50.00 F15000*41
N132 G1 X10.00 Y10.00 Z10.00 F15000*46
N133 G4 S1*110
N134 G1 Z50.00*127
N135 G1 X50.00 Y40.00 Z50.00 F15000*44
N136 G1 X50.00 Y40.00 Z10.00 F15000*43
N137 G4 S1*106
N138 G1 Z50.00*115
N139 G1 X10.00 Y10.00 Z50.00 F15000*33
N140 G1 X10.00 Y10.00 Z10.00 F15000*43
N141 G4 S1*107
N142 G1 Z50.00*126
N143 G1 X60.00 Y40.00 Z50.00 F15000*46
N144 G1 X60.00 Y40.00 Z10.00 F15000*45
N145 G4 S1*111
N146 G1 Z50.00*122
N147 G1 X10.00 Y10.00 Z50.00 F15000*40
N148 G1 X10.00 Y10.00 Z10.00 F15000*35
N149 G4 S1*99
N150 G1 Z50.00*125
N151 G1 X70.00 Y40.00 Z50.00 F15000*44
N152 G1 X70.00 Y40.00 Z10.00 F15000*43
N153 G4 S1*104
N154 G1 Z50.00*121
N155 G1 X10.00 Y10.00 Z50.00 F15000*43
N156 G1 X10.00 Y10.00 Z10.00 F15000*44
N157 G4 S1*108
N158 G1 Z50.00*117
N159 G1 X80.00 Y40.00 Z50.00 F15000*43
N160 G1 X80.00 Y40.00 Z10.00 F15000*37
N161 G4 S1*105
N162 G1 Z50.00*124
N163 G1 X10.00 Y10.00 Z50.00 F15000*46
N164 G1 X10.00 Y10.00 Z10.00 F15000*45
N165 G4 S1*109
N166 G1 Z50.00*120
N167 G1 X40.00 Y50.00 Z50.00 F15000*43
N168 G1 X40.00 Y50.00 Z10.00 F15000*32
N169 G4 S1*97
N170 G1 Z50.00*127
N171 G1 X10.00 Y10.00 Z50.00 F15000*45
N172 G1 X10.00 Y10.00 Z10.00 F15000*42
N173 G4 S1*106
N174 G1 Z50.00*123
N175 G1 X50.00 Y50.00 Z50.00 F15000*41
N176 G1 X50.00 Y50.00 Z10.00 F15000*46
N177 G4 S1*110
N178 G1 Z50.00*119
N179 G1 X10.00 Y10.00 Z50.00 F15000*37
N180 G1 X10.00 Y10.00 Z10.00 F15000*39
N181 G4 S1*103
N182 G1 Z50.00*114
N183 G1 X60.00 Y50.00 Z50.00 F15000*35
N184 G1 X60.00 Y50.00 Z10.00 F15000*32
N185 G4 S1*99
N186 G1 Z50.00*118
N187 G1 X10.00 Y10.00 Z50.00 F15000*36
N188 G1 X10.00 Y10.00 Z10.00 F15000*47
N189 G4 S1*111
N190 G1 Z50.00*113
N191 G1 X70.00 Y50.00 Z50.00 F15000*33
N192 G1 X70.00 Y50.00 Z10.00 F15000*38
N193 G4 S1*100
N194 G1 Z50.00*117
N195 G1 X10.00 Y10.00 Z50.00 F15000*39
N196 G1 X10.00 Y10.00 Z10.00 F15000*32
N197 G4 S1*96
N198 G1 Z50.00*121
N199 G1 X80.00 Y50.00 Z50.00 F15000*38
N200 G1 X80.00 Y50.00 Z10.00 F15000*33
N201 G4 S1*108
N202 G1 Z50.00*121
N203 G1 X10.00 Y10.00 Z50.00 F15000*43
N204 G1 X10.00 Y10.00 Z10.00 F15000*40
N205 G4 S1*104
N206 G1 Z50.00*125
N207 G1 X40.00 Y60.00 Z50.00 F15000*45
N208 G1 X40.00 Y60.00 Z10.00 F15000*38
N209 G4 S1*100
N210 G1 Z50.00*122
N211 G1 X10.00 Y10.00 Z50.00 F15000*40
N212 G1 X10.00 Y10.00 Z10.00 F15000*47
N213 G4 S1*111
N214 G1 Z50.00*126
N215 G1 X50.00 Y60.00 Z50.00 F15000*47
N216 G1 X50.00 Y60.00 Z10.00 F15000*40
N217 G4 S1*107
N218 G1 Z50.00*114
N219 G1 X10.00 Y10.00 Z50.00 F15000*32
N220 G1 X10.00 Y10.00 Z10.00 F15000*46
N221 G4 S1*110
N222 G1 Z50.00*123
N223 G1 X60.00 Y60.00 Z50.00 F15000*41
N224 G1 X60.00 Y60.00 Z10.00 F15000*42
N225 G4 S1*106
N226 G1 Z50.00*127
N227 G1 X10.00 Y10.00 Z50.00 F15000*45
N228 G1 X10.00 Y10.00 Z10.00 F15000*38
N229 G4 S1*102
N230 G1 Z50.00*120
N231 G1 X70.00 Y60.00 Z50.00 F15000*43
N232 G1 X70.00 Y60.00 Z10.00 F15000*44
N233 G4 S1*109
N234 G1 Z50.00*124
N235 G1 X10.00 Y10.00 Z50.00 F15000*46
N236 G1 X10.00 Y10.00 Z10.00 F15000*41
N237 G4 S1*105
N238 G1 Z50.00*112
N239 G1 X80.00 Y60.00 Z50.00 F15000*44
N240 G1 X80.00 Y60.00 Z10.00 F15000*38
N241 G4 S1*104
N242 G1 Z50.00*125
N243 G1 X40.00 Y10.00 Z50.00 F15000*42
N244 G1 X40.00 Y10.00 Z10.00 F15000*41
N245 G4 S1*108
N246 G4 S1*111
N247 G1 Z50.00*120
N248 G1 X50.00 Y10.00 Z50.00 F15000*32
N249 G1 X50.00 Y10.00 Z10.00 F15000*37
N250 G4 S1*104
N251 G4 S1*105
N252 G1 Z50.00*124
N253 G1 X60.00 Y10.00 Z50.00 F15000*41
N254 G1 X60.00 Y10.00 Z10.00 F15000*42
N255 G4 S1*109
N256 G4 S1*110
N257 G1 Z50.00*121
N258 G1 X70.00 Y10.00 Z50.00 F15000*35
N259 G1 X70.00 Y10.00 Z10.00 F15000*38
N260 G4 S1*107
N261 G4 S1*106
N262 G1 Z50.00*127
N263 G1 X80.00 Y10.00 Z50.00 F15000*36
N264 G1 X80.00 Y10.00 Z10.00 F15000*39
N265 G4 S1*110
N266 G4 S1*109
N267 G1 Z50.00*122
N268 G1 X40.00 Y20.00 Z50.00 F15000*32
N269 G1 X40.00 Y20.00 Z10.00 F15000*37
N270 G4 S1*106
N271 G4 S1*107
N272 G1 Z50.00*126
N273 G1 X50.00 Y20.00 Z50.00 F15000*43
N274 G1 X50.00 Y20.00 Z10.00 F15000*40
N275 G4 S1*111
N276 G4 S1*108
N277 G1 Z50.00*123
N278 G1 X60.00 Y20.00 Z50.00 F15000*35
N279 G1 X60.00 Y20.00 Z10.00 F15000*38
N280 G4 S1*101
N281 G4 S1*100
N282 G1 Z50.00*113
N283 G1 X70.00 Y20.00 Z50.00 F15000*38
N284 G1 X70.00 Y20.00 Z10.00 F15000*37
N285 G4 S1*96
N286 G4 S1*99
N287 G1 Z50.00*116
N288 G1 X80.00 Y20.00 Z50.00 F15000*34
N289 G1 X80.00 Y20.00 Z10.00 F15000*39
N290 G4 S1*100
N291 G4 S1*101
N292 G1 Z50.00*112
N293 G1 X40.00 Y30.00 Z50.00 F15000*37
N294 G1 X40.00 Y30.00 Z10.00 F15000*38
N295 G4 S1*97
N296 G4 S1*98
N297 G1 Z50.00*117
N298 G1 X50.00 Y30.00 Z50.00 F15000*47
N299 G1 X50.00 Y30.00 Z10.00 F15000*42
N300 G4 S1*108
N301 G4 S1*109
N302 G1 Z50.00*120
N303 G1 X60.00 Y30.00 Z50.00 F15000*47
N304 G1 X60.00 Y30.00 Z10.00 F15000*44
N305 G4 S1*105
N306 G4 S1*106
N307 G1 Z50.00*125
N308 G1 X70.00 Y30.00 Z50.00 F15000*37
N309 G1 X70.00 Y30.00 Z10.00 F15000*32
N310 G4 S1*109
N311 G4 S1*108
N312 G1 Z50.00*121
N313 G1 X80.00 Y30.00 Z50.00 F15000*32
N314 G1 X80.00 Y30.00 Z10.00 F15000*35
N315 G4 S1*104
N316 G4 S1*107
N317 G1 Z50.00*124
N318 G1 X40.00 Y40.00 Z50.00 F15000*32
N319 G1 X40.00 Y40.00 Z10.00 F15000*37
N320 G4 S1*110
N321 G4 S1*111
N322 G1 Z50.00*122
N323 G1 X50.00 Y40.00 Z50.00 F15000*41
N324 G1 X50.00 Y40.00 Z10.00 F15000*42
N325 G4 S1*107
N326 G4 S1*104
N327 G1 Z50.00*127
N328 G1 X60.00 Y40.00 Z50.00 F15000*33
N329 G1 X60.00 Y40.00 Z10.00 F15000*36
N330 G4 S1*111
N331 G4 S1*110
N332 G1 Z50.00*123
N333 G1 X70.00 Y40.00 Z50.00 F15000*42
N334 G1 X70.00 Y40.00 Z10.00 F15000*41
N335 G4 S1*106
N336 G4 S1*105
N337 G1 Z50.00*126
N338 G1 X80.00 Y40.00 Z50.00 F15000*46
N339 G1 X80.00 Y40.00 Z10.00 F15000*43
N340 G4 S1*104
N341 G4 S1*105
N342 G1 Z50.00*124
N343 G1 X40.00 Y50.00 Z50.00 F15000*47
N344 G1 X40.00 Y50.00 Z10.00 F15000*44
N345 G4 S1*109
N346 G4 S1*110
N347 G1 Z50.00*121
N348 G1 X50.00 Y50.00 Z50.00 F15000*37
N349 G1 X50.00 Y50.00 Z10.00 F15000*32
N350 G4 S1*105
N351 G4 S1*104
N352 G1 Z50.00*125
N353 G1 X60.00 Y50.00 Z50.00 F15000*44
N354 G1 X60.00 Y50.00 Z10.00 F15000*47
N355 G4 S1*108
N356 G4 S1*111
N357 G1 Z50.00*120
N358 G1 X70.00 Y50.00 Z50.00 F15000*38
N359 G1 X70.00 Y50.00 Z10.00 F15000*35
N360 G4 S1*106
N361 G4 S1*107
N362 G1 Z50.00*126
N363 G1 X80.00 Y50.00 Z50.00 F15000*33
N364 G1 X80.00 Y50.00 Z10.00 F15000*34
N365 G4 S1*111
N366 G4 S1*108
N367 G1 Z50.00*123
N368 G1 X40.00 Y60.00 Z50.00 F15000*37
N369 G1 X40.00 Y60.00 Z10.00 F15000*32
N370 G4 S1*107
N371 G4 S1*106
N372 G1 Z50.00*127
N373 G1 X50.00 Y60.00 Z50.00 F15000*46
N374 G1 X50.00 Y60.00 Z10.00 F15000*45
N375 G4 S1*110
N376 G4 S1*109
N377 G1 Z50.00*122
N378 G1 X60.00 Y60.00 Z50.00 F15000*38
N379 G1 X60.00 Y60.00 Z10.00 F15000*35
N380 G4 S1*100
N381 G4 S1*101
N382 G1 Z50.00*112
N383 G1 X70.00 Y60.00 Z50.00 F15000*35
N384 G1 X70.00 Y60.00 Z10.00 F15000*32
N385 G4 S1*97
N386 G4 S1*98
N387 G1 Z50.00*117
N388 G1 X80.00 Y60.00 Z50.00 F15000*39
N389 G1 X80.00 Y60.00 Z10.00 F15000*34
N390 G4 S1*101
N391 G4 S1*100
N392 G1 Z50.00*113
