{
  "rows": 3,
  "cols": 4,
  "startingPoints": [
    {"x": 0.0, "y": 200.0},
    {"x": 150.0, "y": 200.0},
    {"x": 300.0, "y": 200.0},
    {"x": 450.0, "y": 200.0},
    {"x": 0.0, "y": 100.0},
    {"x": 150.0, "y": 100.0},
    {"x": 300.0, "y": 100.0},
    {"x": 450.0, "y": 100.0},
    {"x": 0.0, "y": 0.0},
    {"x": 150.0, "y": 0.0},
    {"x": 300.0, "y": 0.0},
    {"x": 450.0, "y": 0.0}
  ]
}